Home · Kezdi.jl
…
julia> @rename HP HorsepowerKezdi.jl> @rename HP Horsepower

32×12 DataFrame
 Row │ Model              MPG      Cyl    Disp     Horsepower  DRat     WT     ⋯
     │ String31           Float64  Int64  Float64  Int64       Float64  Float6 ⋯
─────┼──────────────────────────────────────────────────────────────────────────
   1 │ Mazda RX4             21.0      6    160.0         110     3.9     2.62 ⋯
   2 │ Mazda RX4 Wag         21.0      6    160.0         110     3.9     2.87
   3 │ Datsun 710            22.8      4    108.0          93     3.85    2.32
   4 │ Hornet 4 Drive        21.4      6    258.0         110     3.08    3.21
   5 │ Hornet Sportabout     18.7      8    360.0         175     3.15    3.44 ⋯
   6 │ Valiant               18.1      6    225.0         105     2.76    3.46
   7 │ Duster 360            14.3      8    360.0         245     3.21    3.57
   8 │ Merc 240D             24.4      4    146.7          62     3.69    3.19
  ⋮  │         ⋮             ⋮       ⋮       ⋮         ⋮          ⋮        ⋮   ⋱
  26 │ Fiat X1-9             27.3      4     79.0          66     4.08    1.93 ⋯
  27 │ Porsche 914-2         26.0      4    120.3          91     4.43    2.14
  28 │ Lotus Europa          30.4      4     95.1         113     3.77    1.51
  29 │ Ford Pantera L        15.8      8    351.0         264     4.22    3.17
  30 │ Ferrari Dino          19.7      6    145.0         175     3.62    2.77 ⋯
  31 │ Maserati Bora         15.0      8    301.0         335     3.54    3.57
  32 │ Volvo 142E            21.4      4    121.0         109     4.11    2.78
                                                   6 columns and 17 rows omitted
julia> @rename Disp DisplacementKezdi.jl> @rename Disp Displacement

32×12 DataFrame
 Row │ Model              MPG      Cyl    Displacement  Horsepower  DRat     W ⋯
     │ String31           Float64  Int64  Float64       Int64       Float64  F ⋯
─────┼──────────────────────────────────────────────────────────────────────────
   1 │ Mazda RX4             21.0      6         160.0         110     3.9     ⋯
   2 │ Mazda RX4 Wag         21.0      6         160.0         110     3.9
   3 │ Datsun 710            22.8      4         108.0          93     3.85
   4 │ Hornet 4 Drive        21.4      6         258.0         110     3.08
   5 │ Hornet Sportabout     18.7      8         360.0         175     3.15    ⋯
   6 │ Valiant               18.1      6         225.0         105     2.76
   7 │ Duster 360            14.3      8         360.0         245     3.21
   8 │ Merc 240D             24.4      4         146.7          62     3.69
  ⋮  │         ⋮             ⋮       ⋮         ⋮            ⋮          ⋮       ⋱
  26 │ Fiat X1-9             27.3      4          79.0          66     4.08    ⋯
  27 │ Porsche 914-2         26.0      4         120.3          91     4.43
  28 │ Lotus Europa          30.4      4          95.1         113     3.77
  29 │ Ford Pantera L        15.8      8         351.0         264     4.22
  30 │ Ferrari Dino          19.7      6         145.0         175     3.62    ⋯
  31 │ Maserati Bora         15.0      8         301.0         335     3.54
  32 │ Volvo 142E            21.4      4         121.0         109     4.11
                                                   6 columns and 17 rows omitted
julia> @rename WT WeightKezdi.jl> @rename WT Weight

32×12 DataFrame
 Row │ Model              MPG      Cyl    Displacement  Horsepower  DRat     W ⋯
     │ String31           Float64  Int64  Float64       Int64       Float64  F ⋯
─────┼──────────────────────────────────────────────────────────────────────────
   1 │ Mazda RX4             21.0      6         160.0         110     3.9     ⋯
   2 │ Mazda RX4 Wag         21.0      6         160.0         110     3.9
   3 │ Datsun 710            22.8      4         108.0          93     3.85
   4 │ Hornet 4 Drive        21.4      6         258.0         110     3.08
   5 │ Hornet Sportabout     18.7      8         360.0         175     3.15    ⋯
   6 │ Valiant               18.1      6         225.0         105     2.76
   7 │ Duster 360            14.3      8         360.0         245     3.21
   8 │ Merc 240D             24.4      4         146.7          62     3.69
  ⋮  │         ⋮             ⋮       ⋮         ⋮            ⋮          ⋮       ⋱
  26 │ Fiat X1-9             27.3      4          79.0          66     4.08    ⋯
  27 │ Porsche 914-2         26.0      4         120.3          91     4.43
  28 │ Lotus Europa          30.4      4          95.1         113     3.77
  29 │ Ford Pantera L        15.8      8         351.0         264     4.22
  30 │ Ferrari Dino          19.7      6         145.0         175     3.62    ⋯
  31 │ Maserati Bora         15.0      8         301.0         335     3.54
  32 │ Volvo 142E            21.4      4         121.0         109     4.11
                                                   6 columns and 17 rows omitted
julia> @rename Cyl CylindersKezdi.jl> @rename Cyl Cylinders

32×12 DataFrame
 Row │ Model              MPG      Cylinders  Displacement  Horsepower  DRat   ⋯
     │ String31           Float64  Int64      Float64       Int64       Float6 ⋯
─────┼──────────────────────────────────────────────────────────────────────────
   1 │ Mazda RX4             21.0          6         160.0         110     3.9 ⋯
   2 │ Mazda RX4 Wag         21.0          6         160.0         110     3.9
   3 │ Datsun 710            22.8          4         108.0          93     3.8
   4 │ Hornet 4 Drive        21.4          6         258.0         110     3.0
   5 │ Hornet Sportabout     18.7          8         360.0         175     3.1 ⋯
   6 │ Valiant               18.1          6         225.0         105     2.7
   7 │ Duster 360            14.3          8         360.0         245     3.2
   8 │ Merc 240D             24.4          4         146.7          62     3.6
  ⋮  │         ⋮             ⋮         ⋮           ⋮            ⋮          ⋮   ⋱
  26 │ Fiat X1-9             27.3          4          79.0          66     4.0 ⋯
  27 │ Porsche 914-2         26.0          4         120.3          91     4.4
  28 │ Lotus Europa          30.4          4          95.1         113     3.7
  29 │ Ford Pantera L        15.8          8         351.0         264     4.2
  30 │ Ferrari Dino          19.7          6         145.0         175     3.6 ⋯
  31 │ Maserati Bora         15.0          8         301.0         335     3.5
  32 │ Volvo 142E            21.4          4         121.0         109     4.1
                                                   7 columns and 17 rows omitted
…
julia> renamed_df = @with df begin
           @rename HP Horsepower
           @rename Disp Displacement
           @rename WT Weight
           @rename Cyl Cylinders
       endKezdi.jl> @rename HP Horsepower

Kezdi.jl> @rename Disp Displacement

Kezdi.jl> @rename WT Weight

Kezdi.jl> @rename Cyl Cylinders

32×12 DataFrame
 Row │ Model              MPG      Cylinders  Displacement  Horsepower  DRat   ⋯
     │ String31           Float64  Int64      Float64       Int64       Float6 ⋯
─────┼──────────────────────────────────────────────────────────────────────────
   1 │ Mazda RX4             21.0          6         160.0         110     3.9 ⋯
   2 │ Mazda RX4 Wag         21.0          6         160.0         110     3.9
   3 │ Datsun 710            22.8          4         108.0          93     3.8
   4 │ Hornet 4 Drive        21.4          6         258.0         110     3.0
   5 │ Hornet Sportabout     18.7          8         360.0         175     3.1 ⋯
   6 │ Valiant               18.1          6         225.0         105     2.7
   7 │ Duster 360            14.3          8         360.0         245     3.2
   8 │ Merc 240D             24.4          4         146.7          62     3.6
  ⋮  │         ⋮             ⋮         ⋮           ⋮            ⋮          ⋮   ⋱
  26 │ Fiat X1-9             27.3          4          79.0          66     4.0 ⋯
  27 │ Porsche 914-2         26.0          4         120.3          91     4.4
  28 │ Lotus Europa          30.4          4          95.1         113     3.7
  29 │ Ford Pantera L        15.8          8         351.0         264     4.2
  30 │ Ferrari Dino          19.7          6         145.0         175     3.6 ⋯
  31 │ Maserati Bora         15.0          8         301.0         335     3.5
  32 │ Volvo 142E            21.4          4         121.0         109     4.1
                                                   7 columns and 17 rows omitted
…
